<?xml version="1.0" encoding="UTF-8" standalone="no"?>
<!-- Created with Inkscape (http://www.inkscape.org/) -->

<svg
   xmlns:dc="http://purl.org/dc/elements/1.1/"
   xmlns:cc="http://creativecommons.org/ns#"
   xmlns:rdf="http://www.w3.org/1999/02/22-rdf-syntax-ns#"
   xmlns:svg="http://www.w3.org/2000/svg"
   xmlns="http://www.w3.org/2000/svg"
   xmlns:sodipodi="http://sodipodi.sourceforge.net/DTD/sodipodi-0.dtd"
   xmlns:inkscape="http://www.inkscape.org/namespaces/inkscape"
   width="210mm"
   height="297mm"
   viewBox="0 0 210 297"
   version="1.1"
   id="svg8"
   inkscape:version="0.92.3 (11504fc, 2018-09-15)"
   sodipodi:docname="markers.svg">
  <defs
     id="defs2">
    <inkscape:path-effect
       effect="mirror_symmetry"
       start_point="59.3122848749493,67.8626266630718"
       end_point="59.3122848749493,86.8993207756334"
       center_point="59.3122848749493,77.3809737193526"
       id="path-effect5052"
       is_visible="true"
       mode="free"
       discard_orig_path="false"
       fuse_paths="true"
       oposite_fuse="false" />
    <inkscape:path-effect
       effect="bend_path"
       id="path-effect5040"
       is_visible="true"
       bendpath="m 10.5797209440422,134.344805425464 c 29.9867492711744,-18.788015222414 124.9172236836378,-24.232052434268 180.5605707783188,0"
       prop_scale="1"
       scale_y_rel="false"
       vertical="false"
       bendpath-nodetypes="cc" />
    <inkscape:path-effect
       effect="bend_path"
       id="path-effect5038"
       is_visible="true"
       bendpath="m 10.5797209440422,134.344805425464 c 95.6027145233348,22.119897214487 169.1617012670108,3.199756089631 180.5605707783188,0"
       prop_scale="1"
       scale_y_rel="false"
       vertical="false"
       bendpath-nodetypes="cc" />
    <inkscape:path-effect
       effect="copy_rotate"
       starting_point="60.4763641521658,218.307853780022"
       origin="46.923829095098,218.307853780022"
       id="path-effect4979"
       is_visible="true"
       copies_to_360="true"
       fuse_paths="false"
       starting_angle="0"
       rotation_angle="60"
       num_copies="6" />
    <marker
       style="overflow:visible"
       inkscape:stockid="InfiniteLineStart"
       id="InfiniteLineStart"
       refX="0"
       refY="0"
       orient="auto"
       inkscape:isstock="true">
      <g
         id="g4772"
         style="fill:#000000;stroke:#000000;stroke-opacity:1;fill-opacity:1"
         transform="translate(-13,0)">
        <circle
           id="circle4766"
           r="0.8"
           cy="0"
           cx="3"
           style="stroke:#000000;stroke-opacity:1;fill:#000000;fill-opacity:1" />
        <circle
           id="circle4768"
           r="0.8"
           cy="0"
           cx="6.5"
           style="stroke:#000000;stroke-opacity:1;fill:#000000;fill-opacity:1" />
        <circle
           id="circle4770"
           r="0.8"
           cy="0"
           cx="10"
           style="stroke:#000000;stroke-opacity:1;fill:#000000;fill-opacity:1" />
      </g>
    </marker>
    <marker
       inkscape:stockid="Scissors"
       orient="auto"
       refY="0.0"
       refX="0.0"
       id="Scissors"
       style="overflow:visible"
       inkscape:isstock="true">
      <path
         id="schere"
         d="M 9.0898857,-3.6061018 C 8.1198849,-4.7769976 6.3697607,-4.7358294 5.0623558,-4.2327734 L -3.1500488,-1.1548705 C -5.5383421,-2.4615840 -7.8983361,-2.0874077 -7.8983361,-2.7236578 C -7.8983361,-3.2209742 -7.4416699,-3.1119800 -7.5100293,-4.4068519 C -7.5756648,-5.6501286 -8.8736064,-6.5699315 -10.100428,-6.4884954 C -11.327699,-6.4958500 -12.599867,-5.5553341 -12.610769,-4.2584343 C -12.702194,-2.9520479 -11.603560,-1.7387447 -10.304005,-1.6532027 C -8.7816644,-1.4265411 -6.0857470,-2.3487593 -4.8210600,-0.082342643 C -5.7633447,1.6559151 -7.4350844,1.6607341 -8.9465707,1.5737277 C -10.201445,1.5014928 -11.708664,1.8611256 -12.307219,3.0945882 C -12.885586,4.2766744 -12.318421,5.9591904 -10.990470,6.3210002 C -9.6502788,6.8128279 -7.8098011,6.1912892 -7.4910978,4.6502760 C -7.2454393,3.4624530 -8.0864637,2.9043186 -7.7636052,2.4731223 C -7.5199917,2.1477623 -5.9728246,2.3362771 -3.2164999,1.0982979 L 5.6763468,4.2330688 C 6.8000164,4.5467672 8.1730685,4.5362646 9.1684433,3.4313614 L -0.051640930,-0.053722219 L 9.0898857,-3.6061018 z M -9.2179159,-5.5066058 C -7.9233569,-4.7838060 -8.0290767,-2.8230356 -9.3743431,-2.4433169 C -10.590861,-2.0196559 -12.145370,-3.2022863 -11.757521,-4.5207817 C -11.530373,-5.6026336 -10.104134,-6.0014137 -9.2179159,-5.5066058 z M -9.1616516,2.5107591 C -7.8108215,3.0096239 -8.0402087,5.2951947 -9.4138723,5.6023681 C -10.324932,5.9187072 -11.627422,5.4635705 -11.719569,4.3902287 C -11.897178,3.0851737 -10.363484,1.9060805 -9.1616516,2.5107591 z "
         style="fill:#000000;stroke:#000000;stroke-opacity:1;fill-opacity:1" />
    </marker>
    <inkscape:path-effect
       effect="skeletal"
       id="path-effect4520"
       is_visible="true"
       pattern="M 0,5 C 0,2.24 2.24,0 5,0 7.76,0 10,2.24 10,5 10,7.76 7.76,10 5,10 2.24,10 0,7.76 0,5 Z"
       copytype="single_stretched"
       prop_scale="0.26458332724546"
       scale_y_rel="false"
       spacing="0"
       normal_offset="0"
       tang_offset="0"
       prop_units="false"
       vertical_pattern="false"
       fuse_tolerance="0" />
    <marker
       markerWidth="13.2881885556072"
       markerHeight="6.39331422875716"
       refX="6.6440942778036"
       refY="3.19665711437858"
       orient="auto"
       id="marker4942">
      <path
         style="fill:#8aafc3;fill-opacity:1;fill-rule:evenodd;stroke-width:0.0687178895"
         d="M 6.71422142558362,0 3.88967439201298,2.82468124820787 H 0 l 3.32208069256102,3.56863298054929 h 3.322080692561 3.32194647792416 L 13.2881885556072,2.82468124820787 H 9.53890267379188 Z"
         id="path4889"
         inkscape:connector-curvature="0" />
    </marker>
    <marker
       markerWidth="15.9650438164227"
       markerHeight="17.6248358120009"
       refX="7.98252190821134"
       refY="8.81241790600041"
       orient="auto"
       id="marker4994">
      <g
         id="g4992"
         transform="matrix(0.185498282342653,0,0,0.185498282342653,-0.721767789869574,-31.6833139921048)">
        <path
           id="path4988"
           d="m 60.3306379318237,184.353652954102 c -5e-13,7.484858430685 -8.6907479348229,24.919177393642 -13.5525350570683,24.919177393642 -5.7361442250587,0 -13.5525350570669,-17.434318962957 -13.5525350570674,-24.919177393642 0,-7.484858430686 6.0676766263819,-13.552535057068 13.5525350570679,-13.552535057068 7.4848584306859,0 13.5525350570679,6.067676626382 13.5525350570678,13.552535057068 z m -36.1086048988085,5.366463376674 c 6.482077544703,3.742429215343 17.2352666968933,19.985997186265 14.8043731357707,24.196428341921 -2.8680721125294,4.967646618673 -21.874830648135,3.019680163621 -28.3569081928386,-0.722749051721 -6.48207754470421,-3.742429215343 -8.70300133190913,-12.03102962893 -4.96057211656613,-18.513107173634 3.74242921534296,-6.482077544704 12.03102962892983,-8.703001331909 18.51310717363403,-4.960572116566 z m -13.4068088367257,33.954200825921 c 6.4820775447035,-3.742429215342 25.9260146317162,-4.933180207378 28.356908192839,-0.722749051721 2.8680721125293,4.967646618672 -8.3222955910681,20.453999126578 -14.8043731357712,24.19642834192 -6.4820775447042,3.742429215343 -14.77067795829101,1.521505428139 -18.51310717363402,-4.960572116566 -3.74242921534294,-6.482077544704 -1.52150542813809,-14.77067795829 4.96057211656622,-18.513107173633 z m 22.7017960620828,28.587737449246 c 5e-13,-7.484858430685 8.6907479348229,-24.919177393642 13.5525350570683,-24.919177393642 5.7361442250587,0 13.5525350570669,17.434318962957 13.5525350570674,24.919177393642 0,7.484858430686 -6.0676766263819,13.552535057068 -13.5525350570679,13.552535057068 -7.4848584306859,0 -13.5525350570679,-6.067676626382 -13.5525350570678,-13.552535057068 z m 36.1086048988086,-5.366463376674 c -6.4820775447031,-3.742429215343 -17.2352666968934,-19.985997186265 -14.8043731357708,-24.196428341922 2.8680721125294,-4.967646618672 21.8748306481351,-3.01968016362 28.3569081928386,0.722749051722 6.4820775447042,3.742429215343 8.7030013319091,12.03102962893 4.9605721165661,18.513107173634 -3.7424292153429,6.482077544704 -12.0310296289298,8.703001331909 -18.5131071736339,4.960572116566 z m 13.4068088367257,-33.954200825921 c -6.4820775447036,3.742429215342 -25.9260146317163,4.933180207378 -28.3569081928391,0.722749051721 -2.8680721125293,-4.967646618672 8.3222955910681,-20.453999126578 14.8043731357712,-24.196428341921 6.4820775447042,-3.742429215342 14.770677958291,-1.521505428138 18.513107173634,4.960572116566 3.742429215343,6.482077544705 1.5215054281381,14.770677958291 -4.9605721165661,18.513107173634 z"
           style="opacity:1;vector-effect:none;fill:#c90000;fill-opacity:1;fill-rule:evenodd;stroke:none;stroke-width:0.5;stroke-linecap:round;stroke-linejoin:round;stroke-miterlimit:4;stroke-dasharray:none;stroke-dashoffset:0;stroke-opacity:1;marker:none;marker-start:none;marker-mid:none;marker-end:none;paint-order:normal"
           inkscape:connector-curvature="0" />
        <circle
           r="7.57776117324829"
           cy="218.307861328125"
           cx="46.923828125"
           id="circle4990"
           style="opacity:1;vector-effect:none;fill:#fabb00;fill-opacity:1;fill-rule:evenodd;stroke:none;stroke-width:0.5;stroke-linecap:round;stroke-linejoin:round;stroke-miterlimit:4;stroke-dasharray:none;stroke-dashoffset:0;stroke-opacity:1;marker:none;marker-start:none;marker-mid:none;marker-end:none;paint-order:normal" />
      </g>
    </marker>
    <marker
       markerWidth="12.3134897676889"
       markerHeight="24.5347831732951"
       refX="6.98435739737755"
       refY="13.095004100181"
       orient="auto"
       id="marker5061">
      <path
         style="opacity:1;vector-effect:none;fill:#338000;fill-opacity:1;fill-rule:evenodd;stroke:none;stroke-width:0.2305972278;stroke-linecap:round;stroke-linejoin:round;stroke-miterlimit:4;stroke-dasharray:none;stroke-dashoffset:0;stroke-opacity:1;marker:none;marker-start:none;marker-mid:none;marker-end:none;paint-order:normal"
         d="M 6.67265259391377,9.02256265086612 C 10.7530293592102,8.63627381893795 10.3579806817438,10.5256119811162 12.3134897676889,12.2673915866494 10.3579806817438,14.0091711921789 10.7530293592102,15.8985093543571 6.67265259391377,15.5122205224289 3.86915123388104,15.2468133485329 1.56286333650905,13.018956603753 0.858268386070051,12.2673915866494 1.56286333650911,11.515826569542 3.86915123388104,9.28796982475461 6.67265259391377,9.02256265086612 Z M 8.14592124137204,7.81038287745636 C 10.5386347670665,7.72448019937133 11.2452416801878,4.67145065312124 12.0655278018331,-2.8421709430404e-14 8.30764465987278,4.66591070141101 6.59531504550426,3.37990573370831 4.49929641293858,4.60077899654925 0.179603814103928,7.11688124663431 0,11.7581430597656 0,11.7581430597656 c 0,0 2.9187096606463,-3.76009397451965 8.14592124137204,-3.94776018230924 z m 0,8.91401741838234 c 2.39271352569446,0.085902678085 3.09932043881576,3.1389322243351 3.91960656046106,7.8103828774564 C 8.30764465987278,19.8688724718841 6.59531504550426,21.1548774395868 4.49929641293858,19.9340041767458 0.179603814103928,17.4179019266646 0,12.7766401135294 0,12.7766401135294 c 0,0 2.9187096606463,3.7600939745197 8.14592124137204,3.9477601823093 z"
         id="path5059"
         inkscape:connector-curvature="0"
         inkscape:transform-center-x="0.218972477538965"
         inkscape:transform-center-y="-0.21897247753904" />
    </marker>
    <marker
       markerWidth="12.313489767689"
       markerHeight="24.5347831732951"
       refX="5.32913237031102"
       refY="13.0950041001809"
       orient="auto"
       id="marker5109">
      <path
         inkscape:transform-center-y="-0.21897247753904"
         inkscape:transform-center-x="-0.218972477539055"
         inkscape:connector-curvature="0"
         id="path5057"
         d="M 5.64083717377514,9.02256265086612 C 1.56046040847872,8.63627381893795 1.95550908594515,10.5256119811162 0,12.2673915866494 1.95550908594515,14.0091711921789 1.56046040847872,15.8985093543571 5.64083717377514,15.5122205224289 8.44433853380787,15.2468133485329 10.7506264311799,13.0189566037531 11.4552213816189,12.2673915866494 10.7506264311798,11.515826569542 8.44433853380787,9.28796982475461 5.64083717377514,9.02256265086612 Z M 4.16756852631693,7.81038287745636 C 1.77485500062244,7.72448019937133 1.0682480875011,4.67145065312124 0.247961965855836,-2.8421709430404e-14 4.00584510781613,4.66591070141101 5.71817472218464,3.37990573370831 7.81419335475039,4.60077899654925 12.133885953585,7.11688124663431 12.313489767689,11.7581430597656 12.313489767689,11.7581430597656 c 0,0 -2.91870966064639,-3.76009397451968 -8.14592124137207,-3.94776018230924 z m 0,8.91401741838234 C 1.77485500062244,16.8103029739238 1.0682480875011,19.8633325201738 0.247961965855836,24.5347831732951 4.00584510781613,19.8688724718841 5.71817472218464,21.1548774395868 7.81419335475039,19.9340041767458 12.133885953585,17.4179019266646 12.313489767689,12.7766401135295 12.313489767689,12.7766401135295 c 0,0 -2.91870966064639,3.7600939745196 -8.14592124137207,3.9477601823092 z"
         style="opacity:1;vector-effect:none;fill:#338000;fill-opacity:1;fill-rule:evenodd;stroke:none;stroke-width:0.2305972278;stroke-linecap:round;stroke-linejoin:round;stroke-miterlimit:4;stroke-dasharray:none;stroke-dashoffset:0;stroke-opacity:1;marker:none;marker-start:none;marker-mid:none;marker-end:none;paint-order:normal" />
    </marker>
  </defs>
  <sodipodi:namedview
     id="base"
     pagecolor="#ffffff"
     bordercolor="#666666"
     borderopacity="1.0"
     inkscape:pageopacity="0.0"
     inkscape:pageshadow="2"
     inkscape:zoom="2.59008748049031"
     inkscape:cx="480.439436826667"
     inkscape:cy="815.097913124558"
     inkscape:document-units="mm"
     inkscape:current-layer="layer1"
     showgrid="false"
     inkscape:window-width="1280"
     inkscape:window-height="964"
     inkscape:window-x="0"
     inkscape:window-y="0"
     inkscape:window-maximized="1"
     showguides="true"
     inkscape:guide-bbox="true"
     inkscape:snap-global="false" />
  <metadata
     id="metadata5">
    <rdf:RDF>
      <cc:Work
         rdf:about="">
        <dc:format>image/svg+xml</dc:format>
        <dc:type
           rdf:resource="http://purl.org/dc/dcmitype/StillImage" />
        <dc:title></dc:title>
      </cc:Work>
    </rdf:RDF>
  </metadata>
  <g
     inkscape:label="Layer 1"
     inkscape:groupmode="layer"
     id="layer1">
    <path
       style="fill:#8aafc3;fill-opacity:1;fill-rule:evenodd;stroke-width:0.0458098091"
       d="m 21.3513983999728,-37.7732590319975 -1.8829442942869,1.8830337665753 h -2.5929963693387 l 2.2146180647276,2.3789786572011 h 2.2146180647278 2.21452859244 l 2.2146180647277,-2.3789786572011 h -2.4994083564224 z"
       id="rect4860"
       inkscape:connector-curvature="0" />
    <path
       style="opacity:1;vector-effect:none;fill:none;fill-opacity:0.5476190305;fill-rule:evenodd;stroke:#3888b1;stroke-width:0.5;stroke-linecap:round;stroke-linejoin:round;stroke-miterlimit:4;stroke-dasharray:none;stroke-dashoffset:0;stroke-opacity:1;marker:none;marker-start:none;marker-end:none;paint-order:normal"
       d="m 10.5797209440422,-18.8998876681557 c 0,0 6.9102519269398,-6.7004899312267 11.2850356736448,-6.7004899312266 4.3747837467051,0 6.91025192694,6.7004899312274 11.2850356736451,6.7004899312274 4.3747837467051,10e-14 6.9102519269398,-6.7004899312268 11.2850356736448,-6.7004899312268 4.3747837467051,1e-13 6.9102519269399,6.7004899312274 11.285035673645,6.7004899312275 4.3747837467051,2e-13 6.9102519269399,-6.7004899312268 11.285035673645,-6.7004899312266 4.374783746705,10e-14 6.9102519269398,6.7004899312273 11.2850356736449,6.7004899312274 4.3747837467051,10e-14 6.9102519269397,-6.7004899312268 11.2850356736448,-6.7004899312268 4.3747837467052,10e-14 6.9102519269403,6.7004899312275 11.2850356736454,6.7004899312275 4.374783746705,10e-14 6.91025192694,-6.7004899312269 11.285035673645,-6.7004899312267 4.374783746705,10e-14 6.910251926939,6.7004899312272 11.285035673644,6.7004899312274 4.374783746705,2e-13 6.91025192694,-6.7004899312268 11.285035673645,-6.7004899312268 4.374783746705,10e-14 6.91025192694,6.7004899312274 11.285035673645,6.7004899312275 4.374783746705,10e-14 6.91025192694,-6.7004899312268 11.285035673645,-6.7004899312267 4.374783746705,10e-14 6.91025192694,6.7004899312274 11.285035673645,6.7004899312275 4.374783746705,1e-13 6.91025192694,-6.7004899312268 11.285035673645,-6.7004899312267 4.374783746705,10e-14 11.285035673645,6.7004899312274 11.285035673645,6.7004899312274"
       id="path4868"
       inkscape:connector-curvature="0"
       sodipodi:nodetypes="czzzzzzzzzzzzzzzc" />
    <path
       sodipodi:nodetypes="czzzzzzzc"
       inkscape:connector-curvature="0"
       id="path4972"
       d="m 157.739200382532,58.5919038631182 c -0.321978092456,3.9245593654894 0.02923693649,6.668967666886 -3.913161762197,9.137846238458 -3.942398698681,2.4688785715718 -6.808044394387,0.4795352485262 -9.38579746257,2.2660910048485 -2.577753068184,1.7865557563227 -2.572695176359,5.3952578179343 -5.444621954537,6.6556660580583 -2.871926778177,1.2604082401239 -5.709983902884,-1.5511016992054 -9.267630420026,-1.5450539086793 -3.557646517142,0.00604779053 -6.689889149737,3.3316266876132 -9.267630420026,1.5450539086793 -2.57774127029,-1.7865727789348 -2.695263249881,-4.4182313406888 -4.893098147341,-6.6556660580583 -2.19783489746,-2.2374347173693 -6.153409641414,-0.1776769172256 -9.096347687608,-2.2660910048485 -2.942938046195,-2.0884140876228 -2.715343173789,-4.6085821811226 -2.242564888949,-9.137846238458"
       style="opacity:1;vector-effect:none;fill:none;fill-opacity:0.5476190305;fill-rule:evenodd;stroke:#2b8937;stroke-width:0.3584559262;stroke-linecap:round;stroke-linejoin:round;stroke-miterlimit:4;stroke-dasharray:none;stroke-dashoffset:0;stroke-opacity:1;marker:none;paint-order:normal;marker-start:url(#marker5109);marker-end:url(#marker5061);marker-mid:url(#marker4994)" />
    <g
       id="g4986"
       transform="matrix(0.049079753869827,0,0,0.049079753869827,128.53907935914,42.901686694803)">
      <path
         id="path4976"
         d="m 60.3306379318237,184.353652954102 c -5e-13,7.484858430685 -8.6907479348229,24.919177393642 -13.5525350570683,24.919177393642 -5.7361442250587,0 -13.5525350570669,-17.434318962957 -13.5525350570674,-24.919177393642 0,-7.484858430686 6.0676766263819,-13.552535057068 13.5525350570679,-13.552535057068 7.4848584306859,0 13.5525350570679,6.067676626382 13.5525350570678,13.552535057068 z m -36.1086048988085,5.366463376674 c 6.482077544703,3.742429215343 17.2352666968933,19.985997186265 14.8043731357707,24.196428341921 -2.8680721125294,4.967646618673 -21.874830648135,3.019680163621 -28.3569081928386,-0.722749051721 -6.48207754470421,-3.742429215343 -8.70300133190913,-12.03102962893 -4.96057211656613,-18.513107173634 3.74242921534296,-6.482077544704 12.03102962892983,-8.703001331909 18.51310717363403,-4.960572116566 z m -13.4068088367257,33.954200825921 c 6.4820775447035,-3.742429215342 25.9260146317162,-4.933180207378 28.356908192839,-0.722749051721 2.8680721125293,4.967646618672 -8.3222955910681,20.453999126578 -14.8043731357712,24.19642834192 -6.4820775447042,3.742429215343 -14.77067795829101,1.521505428139 -18.51310717363402,-4.960572116566 -3.74242921534294,-6.482077544704 -1.52150542813809,-14.77067795829 4.96057211656622,-18.513107173633 z m 22.7017960620828,28.587737449246 c 5e-13,-7.484858430685 8.6907479348229,-24.919177393642 13.5525350570683,-24.919177393642 5.7361442250587,0 13.5525350570669,17.434318962957 13.5525350570674,24.919177393642 0,7.484858430686 -6.0676766263819,13.552535057068 -13.5525350570679,13.552535057068 -7.4848584306859,0 -13.5525350570679,-6.067676626382 -13.5525350570678,-13.552535057068 z m 36.1086048988086,-5.366463376674 c -6.4820775447031,-3.742429215343 -17.2352666968934,-19.985997186265 -14.8043731357708,-24.196428341922 2.8680721125294,-4.967646618672 21.8748306481351,-3.01968016362 28.3569081928386,0.722749051722 6.4820775447042,3.742429215343 8.7030013319091,12.03102962893 4.9605721165661,18.513107173634 -3.7424292153429,6.482077544704 -12.0310296289298,8.703001331909 -18.5131071736339,4.960572116566 z m 13.4068088367257,-33.954200825921 c -6.4820775447036,3.742429215342 -25.9260146317163,4.933180207378 -28.3569081928391,0.722749051721 -2.8680721125293,-4.967646618672 8.3222955910681,-20.453999126578 14.8043731357712,-24.196428341921 6.4820775447042,-3.742429215342 14.770677958291,-1.521505428138 18.513107173634,4.960572116566 3.742429215343,6.482077544705 1.5215054281381,14.770677958291 -4.9605721165661,18.513107173634 z"
         style="opacity:1;vector-effect:none;fill:#c90000;fill-opacity:1;fill-rule:evenodd;stroke:none;stroke-width:0.5;stroke-linecap:round;stroke-linejoin:round;stroke-miterlimit:4;stroke-dasharray:none;stroke-dashoffset:0;stroke-opacity:1;marker:none;marker-start:none;marker-mid:none;marker-end:none;paint-order:normal"
         inkscape:connector-curvature="0" />
      <circle
         r="7.57776117324829"
         cy="218.307861328125"
         cx="46.923828125"
         id="path4981"
         style="opacity:1;vector-effect:none;fill:#fabb00;fill-opacity:1;fill-rule:evenodd;stroke:none;stroke-width:0.5;stroke-linecap:round;stroke-linejoin:round;stroke-miterlimit:4;stroke-dasharray:none;stroke-dashoffset:0;stroke-opacity:1;marker:none;marker-start:none;marker-mid:none;marker-end:none;paint-order:normal" />
    </g>
    <path
       inkscape:transform-center-y="-0.21897247753901"
       inkscape:transform-center-x="-0.21897247753874"
       inkscape:connector-curvature="0"
       id="path5055"
       d="m 125.852333800886,58.1244482812607 c -1.079599685818,-0.102205586781 -0.975076389905,0.397681801962 -1.492471502228,0.858527655926 0.517395112323,0.460845853963 0.41287181641,0.960733242706 1.492471502228,0.858527655925 0.741759734842,-0.07022231476 1.351965074355,-0.659676078483 1.538389154992,-0.858527655925 -0.186424080637,-0.198851577443 -0.79662942015,-0.788305341168 -1.538389154992,-0.858527655926 z m -0.38980232964,-0.320722565048 c -0.63307212034,-0.02272841691 -0.82002853277,-0.830509151022 -1.037062569122,-2.066497136327 0.994273247977,1.234522206415 1.447327125112,0.894266725377 2.001898721645,1.217289442837 1.142918666775,0.665718720335 1.19043884259,1.893719241726 1.19043884259,1.893719241726 0,0 -0.772241931046,-0.994858197425 -2.155274995113,-1.044511548236 z m 0,2.358500441947 c -0.63307212034,0.02272841691 -0.82002853277,0.830509151022 -1.037062569122,2.066497136327 0.994273247977,-1.234522206415 1.447327125112,-0.894266725377 2.001898721645,-1.217289442837 1.142918666775,-0.665718720334 1.19043884259,-1.893719241726 1.19043884259,-1.893719241726 0,0 -0.772241931046,0.994858197425 -2.155274995113,1.044511548236 z"
       style="opacity:1;vector-effect:none;fill:#338000;fill-opacity:1;fill-rule:evenodd;stroke:none;stroke-width:0.0610121824;stroke-linecap:round;stroke-linejoin:round;stroke-miterlimit:4;stroke-dasharray:none;stroke-dashoffset:0;stroke-opacity:1;marker:none;marker-start:none;marker-mid:none;marker-end:none;paint-order:normal" />
    <path
       style="opacity:1;vector-effect:none;fill:#338000;fill-opacity:1;fill-rule:evenodd;stroke:none;stroke-width:0.0610121824;stroke-linecap:round;stroke-linejoin:round;stroke-miterlimit:4;stroke-dasharray:none;stroke-dashoffset:0;stroke-opacity:1;marker:none;marker-start:none;marker-mid:none;marker-end:none;paint-order:normal"
       d="m 135.831853502676,58.1244482812607 c 1.079599685819,-0.1022055867809 0.975076389906,0.397681801962 1.492471502228,0.858527655926 -0.517395112322,0.460845853963 -0.412871816409,0.960733242706 -1.492471502228,0.858527655925 -0.741759734841,-0.07022231476 -1.351965074354,-0.659676078483 -1.538389154991,-0.858527655925 0.186424080636,-0.198851577443 0.79662942015,-0.788305341168 1.538389154991,-0.858527655926 z m 0.389802329641,-0.320722565048 c 0.63307212034,-0.02272841691 0.820028532769,-0.830509151022 1.037062569121,-2.066497136327 -0.994273247976,1.234522206415 -1.447327125111,0.894266725377 -2.001898721644,1.217289442837 -1.142918666775,0.665718720335 -1.190438842591,1.893719241726 -1.190438842591,1.893719241726 0,0 0.772241931047,-0.994858197425 2.155274995114,-1.044511548236 z m 0,2.358500441947 c 0.63307212034,0.02272841691 0.820028532769,0.830509151022 1.037062569121,2.066497136327 -0.994273247976,-1.234522206415 -1.447327125111,-0.894266725377 -2.001898721644,-1.217289442837 -1.142918666775,-0.665718720334 -1.190438842591,-1.893719241726 -1.190438842591,-1.893719241726 0,0 0.772241931047,0.994858197425 2.155274995114,1.044511548236 z"
       id="path5047"
       inkscape:connector-curvature="0"
       inkscape:transform-center-x="0.218972477538965"
       inkscape:transform-center-y="-0.21897247753904" />
  </g>
</svg>
