<?xml version="1.0" encoding="UTF-8" standalone="no"?>
<svg xmlns:rdf="http://www.w3.org/1999/02/22-rdf-syntax-ns#" xmlns="http://www.w3.org/2000/svg" version="1.1" xmlns:cc="http://creativecommons.org/ns#" xmlns:xlink="http://www.w3.org/1999/xlink" viewBox="0 0 16.03137 16.058596" xmlns:dc="http://purl.org/dc/elements/1.1/">
<metadata>
<rdf:RDF>
<cc:Work rdf:about="">
<dc:format>image/svg+xml</dc:format>
<dc:type rdf:resource="http://purl.org/dc/dcmitype/StillImage"/>
</cc:Work>
</rdf:RDF>
</metadata>
<defs>
<linearGradient id="a">
<stop stop-color="#5a5a5a" offset="0"/>
<stop offset="1"/>
</linearGradient>
<linearGradient id="h" y2="37.90074" xlink:href="#b" gradientUnits="userSpaceOnUse" x2="201.2521" y1="26.49475" x1="192.9638"/>
<linearGradient id="d" y2="166.1914" gradientUnits="userSpaceOnUse" x2="110.1206" gradientTransform="translate(-139.9686,15.05455)" y1="163.4373" x1="107.9483">
<stop stop-color="#f3ff49" offset="0"/>
<stop stop-color="#ffa01e" offset="1"/>
</linearGradient>
<linearGradient id="g" y2="189.9042" xlink:href="#a" gradientUnits="userSpaceOnUse" x2="-39.0581" y1="186.0423" x1="-40.92714"/>
<linearGradient id="b">
<stop offset="0"/>
<stop stop-color="#7f7f7f" offset=".35076979"/>
<stop stop-color="#bfbfbf" offset=".59668732"/>
<stop stop-color="#dfdfdf" offset=".78382427"/>
<stop stop-color="#fff" offset="1"/>
</linearGradient>
<radialGradient id="c" cx="-39.00645" gradientUnits="userSpaceOnUse" cy="185.3796" r="4.772141" gradientTransform="matrix(.173327 .323606 -.837131 .448376 121.9729 116.365)">
<stop stop-color="#d7d7d7" offset="0"/>
<stop offset="1"/>
</radialGradient>
<linearGradient id="e" y2="182.3506" xlink:href="#b" gradientUnits="userSpaceOnUse" x2="-34.67712" gradientTransform="translate(-.96863 1.05455)" y1="183.8118" x1="-33.56642"/>
<linearGradient id="f" y2="184.1298" xlink:href="#a" gradientUnits="userSpaceOnUse" x2="-33.18686" y1="182.3336" x1="-34.91058"/>
</defs>
<g transform="translate(45,-175)">
<path d="m191 40v-14h14" transform="translate(-235,150.0546)" stroke="url(#h)" stroke-linecap="square" stroke-width="2" fill="none"/>
<path style="color:#000000" d="m-42.96863 177.0546h14l-14 14v-14z" fill-rule="evenodd" stroke-width="1px" fill="#fff"/>
<rect style="color:#000000" height="16" width="16" y="175" x="-45" fill="none"/>
<path opacity=".3" d="m191.5 40.5c5.5 0 8.5-0.5 9-3.5l5-3" transform="translate(-235,150.0546)" stroke="#646464" stroke-linecap="round" stroke-width="1px" fill="none"/>
<path fill-rule="evenodd" fill="url(#d)" d="m-33.36912 180.455 3 3 1.40049-0.4004v-7"/>
<path stroke-linejoin="round" d="m-44.46863 190.5546c3.46126-2.1071 3.46863-5.5546 7.23386-6.1545 0.5 0.5 1.65555 1.8323 2.25703 2.0537-0.22141 2.7786-4.02226 4.1893-9.49089 4.1008z" fill-rule="evenodd" stroke="url(#g)" stroke-linecap="round" stroke-width="1px" fill="url(#c)"/>
<path stroke-linejoin="round" style="color:#000000" d="m-37.0151 184.4115 3.84491-4.0888c1.06653 0.6673 2.1996 2 2.73385 3.2661l-4.80016 2.9112-1.7786-2.0885z" fill-rule="evenodd" stroke="url(#f)" stroke-linecap="round" stroke-width="1px" fill="url(#e)"/>
<path stroke-linejoin="round" d="m-29.65866 176.2759c-1.39145 1.238-2.56289 2.6544-3.64461 4.1133 1.4214 0.8669 2.1109 2 2.73386 3.2661 0.76999-0.289 0.56511-0.1789 1.06941-0.4679" stroke="#000" stroke-linecap="round" stroke-width="1px" fill="none"/>
</g>
</svg>
