<?xml version="1.0" encoding="UTF-8" standalone="no"?>
<svg xmlns:rdf="http://www.w3.org/1999/02/22-rdf-syntax-ns#" xmlns="http://www.w3.org/2000/svg" version="1.1" xmlns:cc="http://creativecommons.org/ns#" xmlns:xlink="http://www.w3.org/1999/xlink" viewBox="0 0 15.99917 16.00001" xmlns:dc="http://purl.org/dc/elements/1.1/">
<metadata>
<rdf:RDF>
<cc:Work rdf:about="">
<dc:format>image/svg+xml</dc:format>
<dc:type rdf:resource="http://purl.org/dc/dcmitype/StillImage"/>
</cc:Work>
</rdf:RDF>
</metadata>
<defs>
<linearGradient id="a" y2="107.4082" gradientUnits="userSpaceOnUse" x2="334.4963" gradientTransform="matrix(.898695 0 0 .666666 43.41501 33.33337)" y1="86.63547" x1="334.4035">
<stop stop-color="#f57900" offset="0"/>
<stop stop-color="#73d216" stop-opacity="0" offset="1"/>
</linearGradient>
<linearGradient id="c" y2="107.4082" gradientUnits="userSpaceOnUse" x2="334.4963" gradientTransform="matrix(.898695 0 0 .466666 34.08168 53.63336)" y1="86.63547" x1="334.4035">
<stop stop-color="#73d216" offset="0"/>
<stop stop-color="#73d216" stop-opacity="0" offset="1"/>
</linearGradient>
<linearGradient id="d" y2="350.1636" gradientUnits="userSpaceOnUse" x2="130.3522" gradientTransform="matrix(1 0 0 .996869 215.9431 -248.2098)" y1="343.258" x1="121.1177">
<stop stop-color="#fffdf8" offset="0"/>
<stop stop-color="#cdccc7" offset="1"/>
</linearGradient>
<linearGradient id="b" y2="107.4082" gradientUnits="userSpaceOnUse" x2="334.4963" gradientTransform="matrix(.898695 0 0 .933333 38.74835 6.266664)" y1="86.63547" x1="334.4035">
<stop stop-color="#75507b" offset="0"/>
<stop stop-color="#73d216" stop-opacity="0" offset="1"/>
</linearGradient>
</defs>
<g transform="translate(-331.00079,-86)" fill-rule="evenodd">
<rect stroke-linejoin="round" style="color:#000000" height="15.00001" width="14.99917" stroke="#000" stroke-linecap="round" y="86.5" x="331.5008" stroke-width="1.0000001" fill="url(#d)"/>
<rect style="color:#000000" height="7" width="4.666667" y="94" x="332" stroke-width="1.0000007" fill="url(#c)"/>
<rect style="color:#000000" height="14.00001" width="4.666667" y="86.99999" x="336.6667" stroke-width="1.0000007" fill="url(#b)"/>
<rect style="color:#000000" height="10" width="4.666667" y="91" x="341.3333" stroke-width="1.0000007" fill="url(#a)"/>
</g>
</svg>
