<?xml version="1.0" encoding="UTF-8" standalone="no"?>
<svg xmlns:rdf="http://www.w3.org/1999/02/22-rdf-syntax-ns#" xmlns="http://www.w3.org/2000/svg" version="1.1" xmlns:cc="http://creativecommons.org/ns#" xmlns:xlink="http://www.w3.org/1999/xlink" viewBox="0 0 24.0089 23.999934" xmlns:dc="http://purl.org/dc/elements/1.1/">
<metadata>
<rdf:RDF>
<cc:Work rdf:about="">
<dc:format>image/svg+xml</dc:format>
<dc:type rdf:resource="http://purl.org/dc/dcmitype/StillImage"/>
</cc:Work>
</rdf:RDF>
</metadata>
<defs>
<linearGradient id="e" y2="218.6017" xlink:href="#b" gradientUnits="userSpaceOnUse" x2="20.61538" gradientTransform="matrix(.751237 0 0 1.001998 -38.40231 -39.41679)" y1="212.6297" x1="13.84434"/>
<linearGradient id="a">
<stop stop-color="#ffbf00" offset="0"/>
<stop stop-color="#fff" offset="1"/>
</linearGradient>
<linearGradient id="k" y2="218.6017" xlink:href="#b" gradientUnits="userSpaceOnUse" x2="20.61538" gradientTransform="matrix(.751237 0 0 1.394996 1124.637 -101.6946)" y1="212.6297" x1="13.84434"/>
<linearGradient id="h" y2="218.6017" xlink:href="#b" gradientUnits="userSpaceOnUse" x2="20.61538" gradientTransform="matrix(1.123736,0,0,1.394996,1109.243,-88.69465)" y1="212.6297" x1="13.84434"/>
<linearGradient id="f" y2="213.663" xlink:href="#a" gradientUnits="userSpaceOnUse" x2="15.9855" gradientTransform="matrix(.873045 0 0 .992131 1113.859 -1.26599)" y1="219.5232" x1="19.47374"/>
<linearGradient id="b">
<stop stop-color="#5a5a5a" offset="0"/>
<stop offset="1"/>
</linearGradient>
<linearGradient id="i" y2="213.663" xlink:href="#a" gradientUnits="userSpaceOnUse" x2="15.9855" gradientTransform="matrix(.503763 0 0 .992131 1129.211 -14.26594)" y1="219.5232" x1="19.47374"/>
<linearGradient id="d" y2="219.0135" xlink:href="#a" gradientUnits="userSpaceOnUse" x2="20.6591" gradientTransform="matrix(.669342 0 0 1.001998 -36.88229 -39.41679)" y1="215.0097" x1="17.62746"/>
<linearGradient id="g" y2="219.0135" xlink:href="#a" gradientUnits="userSpaceOnUse" x2="20.6591" gradientTransform="matrix(1.160002,0,0,1.655859,1108.567,-145.3099)" y1="215.0097" x1="17.62746"/>
<linearGradient id="j" y2="219.0135" xlink:href="#a" gradientUnits="userSpaceOnUse" x2="20.6591" gradientTransform="matrix(.669342 0 0 1.655859 1126.157 -158.3099)" y1="215.0097" x1="17.62746"/>
<linearGradient id="c" y2="213.663" xlink:href="#a" gradientUnits="userSpaceOnUse" x2="15.9855" gradientTransform="matrix(.503763 0 0 .600361 -33.82784 47.74752)" y1="219.5232" x1="19.47374"/>
</defs>
<g transform="translate(-1125.0369,-195.0446)">
<rect style="color:#000000" height="15.9681" width="16" y="195.0446" x="1125.038" fill="none"/>
<path d="m1141.013 201.0194-5 1.5" stroke="#c80000" stroke-linecap="round" stroke-width="1.0000008" fill="none"/>
<path d="m1141.013 213.0194-5-3" stroke="#c80000" stroke-linecap="round" stroke-width="1.0000008" fill="none"/>
<path d="m1145.513 212.0194v-6" stroke="#c80000" stroke-linecap="round" fill="none"/>
<g stroke-linejoin="round" stroke-miterlimit="0" transform="matrix(1 0 0 .998006 1170.03 38.37352)">
<rect style="color:#000000" height="5.011291" width="6.008899" stroke="url(#e)" y="175.5202" x="-27.50193" stroke-width="1.0009987" fill="none"/>
<rect style="color:#000000" fill-rule="evenodd" height="3.009787" width="4.016531" stroke="url(#c)" stroke-linecap="round" y="176.5235" x="-26.50193" stroke-width="1.0009992" fill="url(#d)"/>
</g>
<g stroke-linejoin="round" stroke-miterlimit="0" transform="translate(6.999947 .0231631)">
<rect style="color:#000000" height="6.97679" width="6.008899" stroke="url(#k)" y="197.5437" x="1135.537" stroke-width="1.0000005" fill="none"/>
<rect style="color:#000000" fill-rule="evenodd" height="4.973844" width="4.016531" stroke="url(#i)" stroke-linecap="round" y="198.5437" x="1136.537" stroke-width="1.000001" fill="url(#j)"/>
</g>
<g stroke-linejoin="round" stroke-miterlimit="0" transform="translate(-.0110398 -7.976791)">
<rect style="color:#000000" height="6.97679" width="8.988388" stroke="url(#h)" y="210.5437" x="1125.548" stroke-width="1.0000002" fill="none"/>
<rect style="color:#000000" fill-rule="evenodd" height="4.973844" width="6.960839" stroke="url(#f)" stroke-linecap="round" y="211.5437" x="1126.557" stroke-width="1.0000008" fill="url(#g)"/>
</g>
</g>
</svg>
