<?xml version="1.0" encoding="UTF-8" standalone="no"?>
<svg xmlns:rdf="http://www.w3.org/1999/02/22-rdf-syntax-ns#" xmlns="http://www.w3.org/2000/svg" version="1.1" xmlns:cc="http://creativecommons.org/ns#" xmlns:xlink="http://www.w3.org/1999/xlink" viewBox="0 0 24 24" xmlns:dc="http://purl.org/dc/elements/1.1/">
<metadata>
<rdf:RDF>
<cc:Work rdf:about="">
<dc:format>image/svg+xml</dc:format>
<dc:type rdf:resource="http://purl.org/dc/dcmitype/StillImage"/>
</cc:Work>
</rdf:RDF>
</metadata>
<defs>
<linearGradient id="a" y2="28.96459" gradientUnits="userSpaceOnUse" x2="843.9635" y1="45.30668" x1="860.239">
<stop stop-color="#fff" offset="0"/>
<stop stop-color="#e2e1e1" offset="1"/>
</linearGradient>
</defs>
<g transform="translate(-840,-25)">
<path style="color:#000000" d="m841 26h22l1 1v20l-2 2h-20l-1-1v-22z" fill-opacity=".06666673" fill-rule="evenodd"/>
<path style="color:#000000" fill-rule="evenodd" d="m840 26h1v20h-1v-20z"/>
<rect style="color:#000000" fill-rule="evenodd" height="20" width="1" y="26" x="861"/>
<rect style="color:#000000" fill-rule="evenodd" transform="rotate(-90)" height="20" width="1" y="841" x="-26"/>
<rect style="color:#000000" fill-rule="evenodd" transform="rotate(-90)" height="20" width="1" y="841" x="-47"/>
<rect style="color:#000000" fill-rule="evenodd" height="20" width="20" y="26" x="841" fill="url(#a)"/>
<path fill-rule="evenodd" fill="#fff" d="m842 46h-1v-20h20v1h-19v19z"/>
<path d="m843.5 34.7482v-4c0-3 5-3 5 0v4" stroke="#383838" stroke-linecap="round" stroke-width="1.0000001px" fill="none"/>
<path d="m843.3571 31.9982h5.1429" stroke="#383838" stroke-width="1.0000001px" fill="none"/>
<path fill-rule="evenodd" fill="#5a5a5a" d="m845.5492 45 2.4754-3.0009h-2v-7h-1v7h-2l2.5246 3.0009z"/>
<path fill-rule="evenodd" fill="#5a5a5a" d="m851.4754 45-2.4754-3h2v-15h1v15h2l-2.5246 3z"/>
<path d="m851.4754 45-2.4754-3h2v-15h1v15h2l-2.5246 3z" fill-rule="evenodd" transform="translate(6)" fill="#5a5a5a"/>
</g>
</svg>
