<?xml version="1.0" encoding="UTF-8" standalone="no"?>
<svg xmlns:rdf="http://www.w3.org/1999/02/22-rdf-syntax-ns#" xmlns="http://www.w3.org/2000/svg" version="1.1" xmlns:cc="http://creativecommons.org/ns#" viewBox="0 0 20 20" xmlns:dc="http://purl.org/dc/elements/1.1/">
<metadata>
<rdf:RDF>
<cc:Work rdf:about="">
<dc:format>image/svg+xml</dc:format>
<dc:type rdf:resource="http://purl.org/dc/dcmitype/StillImage"/>
</cc:Work>
</rdf:RDF>
</metadata>
<g transform="translate(-1155,-347)">
<path fill="#99b6d4" d="m1172 350c6 6-4 10 0 14-6 6-10-4-14 0-6-6 4-10 0-14 6-6 10 4 14 0z"/>
<rect stroke-linejoin="round" height="19" width="19" stroke="#000" y="347.5" x="1155.5" fill="none"/>
</g>
</svg>
