<?xml version="1.0" encoding="UTF-8" standalone="no"?>
<svg xmlns:rdf="http://www.w3.org/1999/02/22-rdf-syntax-ns#" xmlns="http://www.w3.org/2000/svg" version="1.1" xmlns:cc="http://creativecommons.org/ns#" xmlns:xlink="http://www.w3.org/1999/xlink" viewBox="0 0 16 16" xmlns:dc="http://purl.org/dc/elements/1.1/">
<metadata>
<rdf:RDF>
<cc:Work rdf:about="">
<dc:format>image/svg+xml</dc:format>
<dc:type rdf:resource="http://purl.org/dc/dcmitype/StillImage"/>
</cc:Work>
</rdf:RDF>
</metadata>
<defs>
<linearGradient id="c" y2="179.9122" xlink:href="#a" gradientUnits="userSpaceOnUse" x2="1095.32" gradientTransform="matrix(.6644326 0 0 -.4062185 -764.818 264.5598)" y1="205.1863" x1="1095.32"/>
<linearGradient id="a">
<stop offset="0"/>
<stop stop-color="#7f7f7f" offset=".35076979"/>
<stop stop-color="#bfbfbf" offset=".59668732"/>
<stop stop-color="#dfdfdf" offset=".78382427"/>
<stop stop-color="#fff" offset="1"/>
</linearGradient>
<linearGradient id="b" y2="178.569" xlink:href="#a" gradientUnits="userSpaceOnUse" x2="1095.381" gradientTransform="matrix(.6644326 0 0 .4062185 -764.818 101.4099)" y1="203.0941" x1="1095.32"/>
</defs>
<g transform="translate(45,-175)">
<rect style="color:#000000" height="16" width="16" y="175" x="-45" fill="none"/>
<path style="color:#000000" stroke-width=".6138721" fill="url(#c)" d="m-44.25871 186.1902c3.11679-0.0256 2.6059 2.2179 7.25315 2.1897s3.22096-2.254 7.16093-2.1897v-2.6007c-3.54547 0-4.29717 3.1201-7.16674 3.1225-3.18827 0.003-3.78523-3.1225-7.24734-3.1225v2.6007z"/>
<path style="color:#000000" d="m-29.84463 183.5895c-3.54547 0-4.29717 3.171-7.16674 3.1734-3.18827 0.003-3.78523-3.1734-7.24734-3.1734m0 2.6007c3.11679-0.0256 2.6059 2.2179 7.25315 2.1897s3.22096-2.254 7.16093-2.1897" stroke="#000" stroke-width=".6138721" fill="none"/>
<path style="color:#000000" stroke-width=".6138721" fill="url(#b)" d="m-44.25871 179.7795c3.11679 0.0255 2.6059-2.218 7.25315-2.1897 4.64725 0.0282 3.22096 2.254 7.16093 2.1897v2.6007c-3.54547 0-4.29717-3.1201-7.16674-3.1225-3.18827-0.003-3.78523 3.1225-7.24734 3.1225v-2.6007z"/>
<path style="color:#000000" d="m-29.84463 182.3802c-3.54547 0-4.29717-3.1336-7.16674-3.136-3.18827-0.003-3.78523 3.136-7.24734 3.136m0-2.6007c3.11679 0.0255 2.6059-2.218 7.25315-2.1897 4.64725 0.0282 3.22096 2.254 7.16093 2.1897" stroke="#000" stroke-width=".6138721" fill="none"/>
</g>
</svg>
