<?xml version="1.0" encoding="UTF-8" standalone="no"?>
<svg xmlns:rdf="http://www.w3.org/1999/02/22-rdf-syntax-ns#" xmlns="http://www.w3.org/2000/svg" version="1.1" xmlns:cc="http://creativecommons.org/ns#" xmlns:xlink="http://www.w3.org/1999/xlink" viewBox="0 0 24 24" xmlns:dc="http://purl.org/dc/elements/1.1/">
<metadata>
<rdf:RDF>
<cc:Work rdf:about="">
<dc:format>image/svg+xml</dc:format>
<dc:type rdf:resource="http://purl.org/dc/dcmitype/StillImage"/>
</cc:Work>
</rdf:RDF>
</metadata>
<defs>
<linearGradient id="a">
<stop stop-color="#fff" offset="0"/>
<stop stop-color="#98b6d3" offset="1"/>
</linearGradient>
<linearGradient id="d" y2="1" xlink:href="#a" gradientUnits="userSpaceOnUse" y1="8" x1="9"/>
<linearGradient id="c" y2="8" xlink:href="#a" gradientUnits="userSpaceOnUse" x2="9" y1="1" x1="1"/>
<g id="b">
<rect stroke-linejoin="round" height="8" width="9" stroke="#222" y=".5" x=".5" fill="none"/>
<rect height="6" width="7" stroke="url(#c)" y="1.5" x="1.5" fill="url(#d)"/>
</g>
</defs>
<g transform="matrix(1,0,0,-1,0,24)">
<use opacity=".5" xlink:href="#b" transform="translate(2 14)"/>
<use xlink:href="#b" transform="translate(2 1)"/>
<path d="m17 19h1v-12h2l-2.5-3-2.5 3h2z"/>
</g>
</svg>
