<?xml version="1.0" encoding="UTF-8" standalone="no"?>
<svg xmlns:rdf="http://www.w3.org/1999/02/22-rdf-syntax-ns#" xmlns="http://www.w3.org/2000/svg" version="1.1" xmlns:cc="http://creativecommons.org/ns#" xmlns:xlink="http://www.w3.org/1999/xlink" viewBox="0 0 24 24" xmlns:dc="http://purl.org/dc/elements/1.1/">
<metadata>
<rdf:RDF>
<cc:Work rdf:about="">
<dc:format>image/svg+xml</dc:format>
<dc:type rdf:resource="http://purl.org/dc/dcmitype/StillImage"/>
</cc:Work>
</rdf:RDF>
</metadata>
<defs>
<linearGradient id="a">
<stop stop-color="#fff" offset="0"/>
<stop stop-color="#98b6d3" offset="1"/>
</linearGradient>
<linearGradient id="e" y2="-8.5" xlink:href="#a" gradientUnits="userSpaceOnUse" x2="-11.5" y1="8.5" x1="11.5"/>
<linearGradient id="c" y2="7.5" xlink:href="#a" gradientUnits="userSpaceOnUse" x2="10.5" y1="-7.5" x1="-10.5"/>
<linearGradient id="d" y2="-8.5" xlink:href="#a" gradientUnits="userSpaceOnUse" x2="-4.5" y1="8.5" x1="4.5"/>
<linearGradient id="b" y2="7.5" xlink:href="#a" gradientUnits="userSpaceOnUse" x2="3.5" y1="-7.5" x1="-3.5"/>
<g id="g">
<rect stroke-linejoin="round" height="17" width="23" stroke="#222" y="-8.5" x="-11.5" fill="none"/>
<rect height="15" width="21" stroke="url(#c)" y="-7.5" x="-10.5" fill="url(#e)"/>
</g>
<g id="f">
<rect stroke-linejoin="round" height="17" width="9" stroke="#222" y="-8.5" x="-4.5" fill="none"/>
<rect height="15" width="7" stroke="url(#b)" y="-7.5" x="-3.5" fill="url(#d)"/>
</g>
</defs>
<g transform="matrix(0,1,1,0,0,0)">
<use xlink:href="#g" transform="translate(12,12)"/>
<use opacity=".5" xlink:href="#f" transform="translate(12,12)"/>
<path d="m1 15.5 3-2.5v2h4v1h-4v2z"/>
<path d="m23 15.5-3 2.5v-2h-4v-1h4v-2z"/>
</g>
</svg>
